<svg width="74" height="74" viewBox="0 0 74 74" fill="none" xmlns="http://www.w3.org/2000/svg">
<rect width="74" height="74" fill="white"/>
<path d="M24.6464 37.3536C24.4512 37.1583 24.4512 36.8417 24.6464 36.6464L27.8284 33.4645C28.0237 33.2692 28.3403 33.2692 28.5355 33.4645C28.7308 33.6597 28.7308 33.9763 28.5355 34.1716L25.7071 37L28.5355 39.8284C28.7308 40.0237 28.7308 40.3403 28.5355 40.5355C28.3403 40.7308 28.0237 40.7308 27.8284 40.5355L24.6464 37.3536ZM49 37.5H25V36.5H49V37.5Z" fill="#A89574"/>
</svg>
